Chapter 3 Results | Spatially explicit estimates of carbon stocks and fluxes for the United States: a new approach linking the LUCAS and CBM-CFS3 models
…
Figure 3.4: Net change in carbon stocks between 2001-2020. The ‘Clim’ scenario includes only the effects from climate variability and change; ‘LULC’ assumes only effects from land use and disturbances; ‘LULC+Clim’ includes both LULC and climate effects, and ‘Ref’ assumes no effects from either LULC or climate.

## # A tibble: 28 x 8
## # Groups:   StateClassID [28]
##    ScenarioID Iteration Timestep StockGroupID StateClassID Amount ScenarioName
##         <dbl>     <dbl>    <dbl> <chr>        <chr>         <dbl> <chr>       
##  1        128         1     2020 Total Ecosy~ Forest: Whi~  563.  LULC+Clim   
##  2        128         1     2020 Total Ecosy~ Forest: Spr~  901.  LULC+Clim   
##  3        128         1     2020 Total Ecosy~ Forest: Lon~  767.  LULC+Clim   
##  4        128         1     2020 Total Ecosy~ Forest: Lob~ 4181.  LULC+Clim   
##  5        128         1     2020 Total Ecosy~ Forest: Pin~ 1583.  LULC+Clim   
##  6        128         1     2020 Total Ecosy~ Forest: Dou~ 8813.  LULC+Clim   
##  7        128         1     2020 Total Ecosy~ Forest: Pon~ 1323.  LULC+Clim   
##  8        128         1     2020 Total Ecosy~ Forest: Wes~   14.0 LULC+Clim   
##  9        128         1     2020 Total Ecosy~ Forest: Fir~ 3064.  LULC+Clim   
## 10        128         1     2020 Total Ecosy~ Forest: Lod~ 1237.  LULC+Clim   
## # ... with 18 more rows, and 1 more variable: Change <dbl>
…
